社会調査法 - 3 データの種類とまとめ方
…
class: クラス

gender: 性別

test: テストの点

hometown: 出身地

Code

data3 <- read_csv("data3.csv")
data3

# A tibble: 30 × 5
      id class gender  test hometown
   <dbl> <dbl> <chr>  <dbl> <chr>   
 1     1     1 男       100 京都    
 2     2     1 女        20 京都    
 3     3     1 女        60 大阪    
 4     4     1 女        80 兵庫    
 5     5     1 男        40 兵庫    
 6     6     1 女        90 大阪    
 7     7     1 男        30 大阪    
 8     8     1 男        60 奈良    
 9     9     1 男        90 島根    
10    10     1 女        30 兵庫    
# … with 20 more rows
…
